%YAML 1.1
%TAG !u! tag:unity3d.com,2011:
--- !u!74 &7400000
AnimationClip:
  m_ObjectHideFlags: 0
  m_PrefabParentObject: {fileID: 0}
  m_PrefabInternal: {fileID: 0}
  m_Name: Upper_Animation
  serializedVersion: 6
  m_Legacy: 0
  m_Compressed: 0
  m_UseHighQualityCurve: 1
  m_RotationCurves: []
  m_CompressedRotationCurves: []
  m_EulerCurves:
  - curve:
      serializedVersion: 2
      m_Curve:
      - time: 0
        value: {x: 0, y: 0, z: 12.624491}
        inSlope: {x: 0.00001819263, y: 0.000022074537, z: 637.6457}
        outSlope: {x: 0.00001819263, y: 0.000022074537, z: 637.6457}
        tangentMode: 0
      - time: 0.45
        value: {x: 0.000008186683, y: 0.000009933541, z: 299.56503}
        inSlope: {x: -0.0000727705, y: -0.00008829812, z: -2550.582}
        outSlope: {x: -0.0000727705, y: -0.00008829812, z: -2550.582}
        tangentMode: 0
      - time: 0.5
        value: {x: 0, y: 0, z: 12.624491}
        inSlope: {x: -0.00016373362, y: -0.00019867078, z: -5738.8096}
        outSlope: {x: -0.00016373362, y: -0.00019867078, z: -5738.8096}
        tangentMode: 0
      m_PreInfinity: 2
      m_PostInfinity: 2
      m_RotationOrder: 4
    path: Cylinder.001
  - curve:
      serializedVersion: 2
      m_Curve:
      - time: 0
        value: {x: 0, y: 0, z: 38.3404}
        inSlope: {x: 0.00006925928, y: 0.000102714075, z: 2507.2808}
        outSlope: {x: 0.00006925928, y: 0.000102714075, z: 2507.2808}
        tangentMode: 0
      - time: 0.1005
        value: {x: 0.0000069605576, y: 0.000010322765, z: 290.3221}
        inSlope: {x: 0.00003838428, y: 0.000057181926, z: 1325.8851}
        outSlope: {x: 0.00003838428, y: 0.000057181926, z: 1325.8851}
        tangentMode: 0
      - time: 0.45
        value: {x: 0.000009585053, y: 0.000014394363, z: 340.8212}
        inSlope: {x: -0.00009209586, y: -0.0001381187, z: -2952.5625}
        outSlope: {x: -0.00009209586, y: -0.0001381187, z: -2952.5625}
        tangentMode: 0
      - time: 0.5
        value: {x: 0, y: 0, z: 38.3404}
        inSlope: {x: -0.00019170101, y: -0.00028788717, z: -6049.6147}
        outSlope: {x: -0.00019170101, y: -0.00028788717, z: -6049.6147}
        tangentMode: 0
      m_PreInfinity: 2
      m_PostInfinity: 2
      m_RotationOrder: 4
    path: Cylinder.002
  - curve:
      serializedVersion: 2
      m_Curve:
      - time: 0
        value: {x: 0, y: 0, z: 18.314999}
        inSlope: {x: 0.00020028424, y: 0.00011787154, z: 2729.7507}
        outSlope: {x: 0.00020028424, y: 0.00011787154, z: 2729.7507}
        tangentMode: 0
      - time: 0.1005
        value: {x: 0.000020128566, y: 0.00001184609, z: 292.65497}
        inSlope: {x: 0.00007134589, y: 0.000041988573, z: -1111.5692}
        outSlope: {x: 0.00007134589, y: 0.000041988573, z: 972.40045}
        tangentMode: 0
      - time: 0.45
        value: {x: 0, y: 0, z: 18.314999}
        inSlope: {x: -0.000028796232, y: -0.000016947197, z: -392.4749}
        outSlope: {x: -0.000028796232, y: -0.000016947197, z: -392.4749}
        tangentMode: 0
      - time: 0.5
        value: {x: 0, y: 0, z: 18.314999}
        inSlope: {x: 0, y: 0, z: 0}
        outSlope: {x: 0, y: 0, z: 0}
        tangentMode: 0
      m_PreInfinity: 2
      m_PostInfinity: 2
      m_RotationOrder: 4
    path: Cylinder.003
  m_PositionCurves:
  - curve:
      serializedVersion: 2
      m_Curve:
      - time: 0
        value: {x: 0, y: -0.04, z: 0}
        inSlope: {x: 0, y: 43.511047, z: 0}
        outSlope: {x: 0, y: 43.511047, z: 0}
        tangentMode: 0
      - time: 0.1
        value: {x: 0, y: 4.311105, z: 0}
        inSlope: {x: 0, y: 17.226328, z: 0}
        outSlope: {x: 0, y: -50.211266, z: 0}
        tangentMode: 0
      - time: 0.45
        value: {x: 0, y: 0.28878295, z: 0}
        inSlope: {x: 0, y: -2.8881433, z: 0}
        outSlope: {x: 0, y: -2.8881433, z: 0}
        tangentMode: 0
      - time: 0.5
        value: {x: 0, y: -0.04, z: 0}
        inSlope: {x: 0, y: -10.877762, z: 0}
        outSlope: {x: 0, y: -10.877762, z: 0}
        tangentMode: 0
      m_PreInfinity: 2
      m_PostInfinity: 2
      m_RotationOrder: 4
    path: 
  - curve:
      serializedVersion: 2
      m_Curve:
      - time: 0
        value: {x: 0, y: 0, z: -0.011474346}
        inSlope: {x: 0, y: 0.0000000030395897, z: 0.00000062295135}
        outSlope: {x: 0, y: 0.0000000030395897, z: 0.00000062295135}
        tangentMode: 0
      - time: 0.45
        value: {x: 0, y: 0.0000000013678153, z: -0.0114740655}
        inSlope: {x: 0, y: -0.000000012158355, z: -0.0000024918045}
        outSlope: {x: 0, y: -0.000000012158355, z: -0.0000024918045}
        tangentMode: 0
      - time: 0.5
        value: {x: 0, y: 0, z: -0.011474346}
        inSlope: {x: 0, y: -0.0000000273563, z: -0.0000056065605}
        outSlope: {x: 0, y: -0.0000000273563, z: -0.0000056065605}
        tangentMode: 0
      m_PreInfinity: 2
      m_PostInfinity: 2
      m_RotationOrder: 4
    path: Cylinder.001
  - curve:
      serializedVersion: 2
      m_Curve:
      - time: 0
        value: {x: 0, y: 0, z: -0.016131436}
        inSlope: {x: 0.0000000023918345, y: 0.00000003826935, z: -0.0000015197701}
        outSlope: {x: 0.0000000023918345, y: 0.00000003826935, z: -0.0000015197701}
        tangentMode: 0
      - time: 0.1005
        value: {x: 2.4037938e-10, y: 0.0000000038460697, z: -0.01613159}
        inSlope: {x: 0.0000000011959291, y: 0.000000019134864, z: -0.0000015566388}
        outSlope: {x: 0.0000000011959291, y: 0.000000019134864, z: -0.0000015566388}
        tangentMode: 0
      - time: 0.45
        value: {x: 2.4038768e-10, y: 0.0000000038462025, z: -0.016132146}
        inSlope: {x: -0.0000000024038644, y: -0.000000038461828, z: 0.0000062999225}
        outSlope: {x: -0.0000000024038644, y: -0.000000038461828, z: 0.0000062999225}
        tangentMode: 0
      - time: 0.5
        value: {x: 0, y: 0, z: -0.016131436}
        inSlope: {x: -0.0000000048077524, y: -0.00000007692403, z: 0.000014193352}
        outSlope: {x: -0.0000000048077524, y: -0.00000007692403, z: 0.000014193352}
        tangentMode: 0
      m_PreInfinity: 2
      m_PostInfinity: 2
      m_RotationOrder: 4
    path: Cylinder.002
  - curve:
      serializedVersion: 2
      m_Curve:
      - time: 0
        value: {x: 0, y: 0, z: -0.010065371}
        inSlope: {x: 9.99927e-10, y: 0.00000001599883, z: -0.0000015025337}
        outSlope: {x: 9.99927e-10, y: 0.00000001599883, z: -0.0000015025337}
        tangentMode: 0
      - time: 0.15
        value: {x: 1.4998906e-10, y: 0.0000000023998248, z: -0.010065597}
        inSlope: {x: 2.856934e-10, y: 0.000000004571094, z: -0.0000004292953}
        outSlope: {x: 2.856934e-10, y: 0.000000004571094, z: -0.0000004292953}
        tangentMode: 0
      - time: 0.5
        value: {x: 0, y: 0, z: -0.010065371}
        inSlope: {x: -4.2854018e-10, y: -0.0000000068566424, z: 0.00000064394305}
        outSlope: {x: -4.2854018e-10, y: -0.0000000068566424, z: 0.00000064394305}
        tangentMode: 0
      m_PreInfinity: 2
      m_PostInfinity: 2
      m_RotationOrder: 4
    path: Cylinder.003
  m_ScaleCurves: []
  m_FloatCurves: []
  m_PPtrCurves: []
  m_SampleRate: 20
  m_WrapMode: 0
  m_Bounds:
    m_Center: {x: 0, y: 0, z: 0}
    m_Extent: {x: 0, y: 0, z: 0}
  m_ClipBindingConstant:
    genericBindings:
    - path: 0
      attribute: 1
      script: {fileID: 0}
      classID: 4
      customType: 0
      isPPtrCurve: 0
    - path: 166846581
      attribute: 1
      script: {fileID: 0}
      classID: 4
      customType: 0
      isPPtrCurve: 0
    - path: 2432217551
      attribute: 1
      script: {fileID: 0}
      classID: 4
      customType: 0
      isPPtrCurve: 0
    - path: 3892281689
      attribute: 1
      script: {fileID: 0}
      classID: 4
      customType: 0
      isPPtrCurve: 0
    - path: 166846581
      attribute: 4
      script: {fileID: 0}
      classID: 4
      customType: 14
      isPPtrCurve: 0
    - path: 2432217551
      attribute: 4
      script: {fileID: 0}
      classID: 4
      customType: 14
      isPPtrCurve: 0
    - path: 3892281689
      attribute: 4
      script: {fileID: 0}
      classID: 4
      customType: 14
      isPPtrCurve: 0
    pptrCurveMapping: []
  m_AnimationClipSettings:
    serializedVersion: 2
    m_AdditiveReferencePoseClip: {fileID: 0}
    m_AdditiveReferencePoseTime: 0
    m_StartTime: 0
    m_StopTime: 0.5
    m_OrientationOffsetY: 0
    m_Level: 0
    m_CycleOffset: 0
    m_HasAdditiveReferencePose: 0
    m_LoopTime: 1
    m_LoopBlend: 0
    m_LoopBlendOrientation: 0
    m_LoopBlendPositionY: 0
    m_LoopBlendPositionXZ: 0
    m_KeepOriginalOrientation: 0
    m_KeepOriginalPositionY: 1
    m_KeepOriginalPositionXZ: 0
    m_HeightFromFeet: 0
    m_Mirror: 0
  m_EditorCurves:
  - curve:
      serializedVersion: 2
      m_Curve:
      - time: 0
        value: 0
        inSlope: 0
        outSlope: 0
        tangentMode: 10
      - time: 0.45
        value: 0
        inSlope: 0
        outSlope: 0
        tangentMode: 10
      - time: 0.5
        value: 0
        inSlope: 0
        outSlope: 0
        tangentMode: 10
      m_PreInfinity: 2
      m_PostInfinity: 2
      m_RotationOrder: 4
    attribute: m_LocalPosition.x
    path: 
    classID: 4
    script: {fileID: 0}
  - curve:
      serializedVersion: 2
      m_Curve:
      - time: 0
        value: -0.04
        inSlope: 43.511047
        outSlope: 43.511047
        tangentMode: 10
      - time: 0.1
        value: 4.311105
        inSlope: 17.226328
        outSlope: -50.211266
        tangentMode: 1
      - time: 0.5
        value: -0.04
        inSlope: -10.877762
        outSlope: -10.877762
        tangentMode: 10
      m_PreInfinity: 2
      m_PostInfinity: 2
      m_RotationOrder: 4
    attribute: m_LocalPosition.y
    path: 
    classID: 4
    script: {fileID: 0}
  - curve:
      serializedVersion: 2
      m_Curve:
      - time: 0
        value: 0
        inSlope: 0
        outSlope: 0
        tangentMode: 10
      - time: 0.45
        value: 0
        inSlope: 0
        outSlope: 0
        tangentMode: 10
      - time: 0.5
        value: 0
        inSlope: 0
        outSlope: 0
        tangentMode: 10
      m_PreInfinity: 2
      m_PostInfinity: 2
      m_RotationOrder: 4
    attribute: m_LocalPosition.z
    path: 
    classID: 4
    script: {fileID: 0}
  - curve:
      serializedVersion: 2
      m_Curve:
      - time: 0
        value: 0
        inSlope: 0.00001819263
        outSlope: 0.00001819263
        tangentMode: 10
      - time: 0.45
        value: 0.000008186683
        inSlope: -0.0000727705
        outSlope: -0.0000727705
        tangentMode: 10
      - time: 0.5
        value: 0
        inSlope: -0.00016373362
        outSlope: -0.00016373362
        tangentMode: 10
      m_PreInfinity: 2
      m_PostInfinity: 2
      m_RotationOrder: 4
    attribute: localEulerAnglesRaw.x
    path: Cylinder.001
    classID: 4
    script: {fileID: 0}
  - curve:
      serializedVersion: 2
      m_Curve:
      - time: 0
        value: 0
        inSlope: 0.000022074537
        outSlope: 0.000022074537
        tangentMode: 10
      - time: 0.45
        value: 0.000009933541
        inSlope: -0.00008829812
        outSlope: -0.00008829812
        tangentMode: 10
      - time: 0.5
        value: 0
        inSlope: -0.00019867078
        outSlope: -0.00019867078
        tangentMode: 10
      m_PreInfinity: 2
      m_PostInfinity: 2
      m_RotationOrder: 4
    attribute: localEulerAnglesRaw.y
    path: Cylinder.001
    classID: 4
    script: {fileID: 0}
  - curve:
      serializedVersion: 2
      m_Curve:
      - time: 0
        value: 12.624491
        inSlope: 637.6457
        outSlope: 637.6457
        tangentMode: 10
      - time: 0.45
        value: 299.56503
        inSlope: -2550.582
        outSlope: -2550.582
        tangentMode: 10
      - time: 0.5
        value: 12.624491
        inSlope: -5738.8096
        outSlope: -5738.8096
        tangentMode: 10
      m_PreInfinity: 2
      m_PostInfinity: 2
      m_RotationOrder: 4
    attribute: localEulerAnglesRaw.z
    path: Cylinder.001
    classID: 4
    script: {fileID: 0}
  - curve:
      serializedVersion: 2
      m_Curve:
      - time: 0
        value: 0
        inSlope: 0
        outSlope: 0
        tangentMode: 10
      - time: 0.45
        value: 0
        inSlope: 0
        outSlope: 0
        tangentMode: 10
      - time: 0.5
        value: 0
        inSlope: 0
        outSlope: 0
        tangentMode: 10
      m_PreInfinity: 2
      m_PostInfinity: 2
      m_RotationOrder: 4
    attribute: m_LocalPosition.x
    path: Cylinder.001
    classID: 4
    script: {fileID: 0}
  - curve:
      serializedVersion: 2
      m_Curve:
      - time: 0
        value: 0
        inSlope: 0.0000000030395897
        outSlope: 0.0000000030395897
        tangentMode: 10
      - time: 0.45
        value: 0.0000000013678153
        inSlope: -0.000000012158355
        outSlope: -0.000000012158355
        tangentMode: 10
      - time: 0.5
        value: 0
        inSlope: -0.0000000273563
        outSlope: -0.0000000273563
        tangentMode: 10
      m_PreInfinity: 2
      m_PostInfinity: 2
      m_RotationOrder: 4
    attribute: m_LocalPosition.y
    path: Cylinder.001
    classID: 4
    script: {fileID: 0}
  - curve:
      serializedVersion: 2
      m_Curve:
      - time: 0
        value: -0.011474346
        inSlope: 0.00000062295135
        outSlope: 0.00000062295135
        tangentMode: 10
      - time: 0.45
        value: -0.0114740655
        inSlope: -0.0000024918045
        outSlope: -0.0000024918045
        tangentMode: 10
      - time: 0.5
        value: -0.011474346
        inSlope: -0.0000056065605
        outSlope: -0.0000056065605
        tangentMode: 10
      m_PreInfinity: 2
      m_PostInfinity: 2
      m_RotationOrder: 4
    attribute: m_LocalPosition.z
    path: Cylinder.001
    classID: 4
    script: {fileID: 0}
  - curve:
      serializedVersion: 2
      m_Curve:
      - time: 0
        value: 0
        inSlope: 0.00006925928
        outSlope: 0.00006925928
        tangentMode: 10
      - time: 0.1005
        value: 0.0000069605576
        inSlope: 0.00003838428
        outSlope: 0.00003838428
        tangentMode: 10
      - time: 0.45
        value: 0.000009585053
        inSlope: -0.00009209586
        outSlope: -0.00009209586
        tangentMode: 10
      - time: 0.5
        value: 0
        inSlope: -0.00019170101
        outSlope: -0.00019170101
        tangentMode: 10
      m_PreInfinity: 2
      m_PostInfinity: 2
      m_RotationOrder: 4
    attribute: localEulerAnglesRaw.x
    path: Cylinder.002
    classID: 4
    script: {fileID: 0}
  - curve:
      serializedVersion: 2
      m_Curve:
      - time: 0
        value: 0
        inSlope: 0.000102714075
        outSlope: 0.000102714075
        tangentMode: 10
      - time: 0.1005
        value: 0.000010322765
        inSlope: 0.000057181926
        outSlope: 0.000057181926
        tangentMode: 10
      - time: 0.45
        value: 0.000014394363
        inSlope: -0.0001381187
        outSlope: -0.0001381187
        tangentMode: 10
      - time: 0.5
        value: 0
        inSlope: -0.00028788717
        outSlope: -0.00028788717
        tangentMode: 10
      m_PreInfinity: 2
      m_PostInfinity: 2
      m_RotationOrder: 4
    attribute: localEulerAnglesRaw.y
    path: Cylinder.002
    classID: 4
    script: {fileID: 0}
  - curve:
      serializedVersion: 2
      m_Curve:
      - time: 0
        value: 38.3404
        inSlope: 2507.2808
        outSlope: 2507.2808
        tangentMode: 10
      - time: 0.1005
        value: 290.3221
        inSlope: 1325.8851
        outSlope: 1325.8851
        tangentMode: 10
      - time: 0.45
        value: 340.8212
        inSlope: -2952.5625
        outSlope: -2952.5625
        tangentMode: 10
      - time: 0.5
        value: 38.3404
        inSlope: -6049.6147
        outSlope: -6049.6147
        tangentMode: 10
      m_PreInfinity: 2
      m_PostInfinity: 2
      m_RotationOrder: 4
    attribute: localEulerAnglesRaw.z
    path: Cylinder.002
    classID: 4
    script: {fileID: 0}
  - curve:
      serializedVersion: 2
      m_Curve:
      - time: 0
        value: 0
        inSlope: 0.0000000023918345
        outSlope: 0.0000000023918345
        tangentMode: 10
      - time: 0.1005
        value: 2.4037938e-10
        inSlope: 0.0000000011959291
        outSlope: 0.0000000011959291
        tangentMode: 10
      - time: 0.45
        value: 2.4038768e-10
        inSlope: -0.0000000024038644
        outSlope: -0.0000000024038644
        tangentMode: 10
      - time: 0.5
        value: 0
        inSlope: -0.0000000048077524
        outSlope: -0.0000000048077524
        tangentMode: 10
      m_PreInfinity: 2
      m_PostInfinity: 2
      m_RotationOrder: 4
    attribute: m_LocalPosition.x
    path: Cylinder.002
    classID: 4
    script: {fileID: 0}
  - curve:
      serializedVersion: 2
      m_Curve:
      - time: 0
        value: 0
        inSlope: 0.00000003826935
        outSlope: 0.00000003826935
        tangentMode: 10
      - time: 0.1005
        value: 0.0000000038460697
        inSlope: 0.000000019134864
        outSlope: 0.000000019134864
        tangentMode: 10
      - time: 0.45
        value: 0.0000000038462025
        inSlope: -0.000000038461828
        outSlope: -0.000000038461828
        tangentMode: 10
      - time: 0.5
        value: 0
        inSlope: -0.00000007692403
        outSlope: -0.00000007692403
        tangentMode: 10
      m_PreInfinity: 2
      m_PostInfinity: 2
      m_RotationOrder: 4
    attribute: m_LocalPosition.y
    path: Cylinder.002
    classID: 4
    script: {fileID: 0}
  - curve:
      serializedVersion: 2
      m_Curve:
      - time: 0
        value: -0.016131436
        inSlope: -0.0000015197701
        outSlope: -0.0000015197701
        tangentMode: 10
      - time: 0.1005
        value: -0.01613159
        inSlope: -0.0000015566388
        outSlope: -0.0000015566388
        tangentMode: 10
      - time: 0.45
        value: -0.016132146
        inSlope: 0.0000062999225
        outSlope: 0.0000062999225
        tangentMode: 10
      - time: 0.5
        value: -0.016131436
        inSlope: 0.000014193352
        outSlope: 0.000014193352
        tangentMode: 10
      m_PreInfinity: 2
      m_PostInfinity: 2
      m_RotationOrder: 4
    attribute: m_LocalPosition.z
    path: Cylinder.002
    classID: 4
    script: {fileID: 0}
  - curve:
      serializedVersion: 2
      m_Curve:
      - time: 0
        value: 0
        inSlope: 0.00020028424
        outSlope: 0.00020028424
        tangentMode: 10
      - time: 0.1005
        value: 0.000020128566
        inSlope: 0.00007134589
        outSlope: 0.00007134589
        tangentMode: 10
      - time: 0.45
        value: 0
        inSlope: -0.000028796232
        outSlope: -0.000028796232
        tangentMode: 10
      - time: 0.5
        value: 0
        inSlope: 0
        outSlope: 0
        tangentMode: 10
      m_PreInfinity: 2
      m_PostInfinity: 2
      m_RotationOrder: 4
    attribute: localEulerAnglesRaw.x
    path: Cylinder.003
    classID: 4
    script: {fileID: 0}
  - curve:
      serializedVersion: 2
      m_Curve:
      - time: 0
        value: 0
        inSlope: 0.00011787154
        outSlope: 0.00011787154
        tangentMode: 10
      - time: 0.1005
        value: 0.00001184609
        inSlope: 0.000041988573
        outSlope: 0.000041988573
        tangentMode: 10
      - time: 0.45
        value: 0
        inSlope: -0.000016947197
        outSlope: -0.000016947197
        tangentMode: 10
      - time: 0.5
        value: 0
        inSlope: 0
        outSlope: 0
        tangentMode: 10
      m_PreInfinity: 2
      m_PostInfinity: 2
      m_RotationOrder: 4
    attribute: localEulerAnglesRaw.y
    path: Cylinder.003
    classID: 4
    script: {fileID: 0}
  - curve:
      serializedVersion: 2
      m_Curve:
      - time: 0
        value: 18.314999
        inSlope: 2729.7507
        outSlope: 2729.7507
        tangentMode: 10
      - time: 0.1005
        value: 292.65497
        inSlope: -1111.5692
        outSlope: 972.40045
        tangentMode: 1
      - time: 0.45
        value: 18.314999
        inSlope: -392.4749
        outSlope: -392.4749
        tangentMode: 10
      - time: 0.5
        value: 18.314999
        inSlope: 0
        outSlope: 0
        tangentMode: 10
      m_PreInfinity: 2
      m_PostInfinity: 2
      m_RotationOrder: 4
    attribute: localEulerAnglesRaw.z
    path: Cylinder.003
    classID: 4
    script: {fileID: 0}
  - curve:
      serializedVersion: 2
      m_Curve:
      - time: 0
        value: 0
        inSlope: 9.99927e-10
        outSlope: 9.99927e-10
        tangentMode: 10
      - time: 0.15
        value: 1.4998906e-10
        inSlope: 2.856934e-10
        outSlope: 2.856934e-10
        tangentMode: 10
      - time: 0.5
        value: 0
        inSlope: -4.2854018e-10
        outSlope: -4.2854018e-10
        tangentMode: 10
      m_PreInfinity: 2
      m_PostInfinity: 2
      m_RotationOrder: 4
    attribute: m_LocalPosition.x
    path: Cylinder.003
    classID: 4
    script: {fileID: 0}
  - curve:
      serializedVersion: 2
      m_Curve:
      - time: 0
        value: 0
        inSlope: 0.00000001599883
        outSlope: 0.00000001599883
        tangentMode: 10
      - time: 0.15
        value: 0.0000000023998248
        inSlope: 0.000000004571094
        outSlope: 0.000000004571094
        tangentMode: 10
      - time: 0.5
        value: 0
        inSlope: -0.0000000068566424
        outSlope: -0.0000000068566424
        tangentMode: 10
      m_PreInfinity: 2
      m_PostInfinity: 2
      m_RotationOrder: 4
    attribute: m_LocalPosition.y
    path: Cylinder.003
    classID: 4
    script: {fileID: 0}
  - curve:
      serializedVersion: 2
      m_Curve:
      - time: 0
        value: -0.010065371
        inSlope: -0.0000015025337
        outSlope: -0.0000015025337
        tangentMode: 10
      - time: 0.15
        value: -0.010065597
        inSlope: -0.0000004292953
        outSlope: -0.0000004292953
        tangentMode: 10
      - time: 0.5
        value: -0.010065371
        inSlope: 0.00000064394305
        outSlope: 0.00000064394305
        tangentMode: 10
      m_PreInfinity: 2
      m_PostInfinity: 2
      m_RotationOrder: 4
    attribute: m_LocalPosition.z
    path: Cylinder.003
    classID: 4
    script: {fileID: 0}
  m_EulerEditorCurves:
  - curve:
      serializedVersion: 2
      m_Curve: []
      m_PreInfinity: 2
      m_PostInfinity: 2
      m_RotationOrder: 4
    attribute: m_LocalEulerAngles.z
    path: Cylinder.001
    classID: 4
    script: {fileID: 0}
  - curve:
      serializedVersion: 2
      m_Curve: []
      m_PreInfinity: 2
      m_PostInfinity: 2
      m_RotationOrder: 4
    attribute: m_LocalEulerAngles.y
    path: Cylinder.001
    classID: 4
    script: {fileID: 0}
  - curve:
      serializedVersion: 2
      m_Curve: []
      m_PreInfinity: 2
      m_PostInfinity: 2
      m_RotationOrder: 4
    attribute: m_LocalEulerAngles.x
    path: Cylinder.001
    classID: 4
    script: {fileID: 0}
  - curve:
      serializedVersion: 2
      m_Curve: []
      m_PreInfinity: 2
      m_PostInfinity: 2
      m_RotationOrder: 4
    attribute: m_LocalEulerAngles.z
    path: Cylinder.002
    classID: 4
    script: {fileID: 0}
  - curve:
      serializedVersion: 2
      m_Curve: []
      m_PreInfinity: 2
      m_PostInfinity: 2
      m_RotationOrder: 4
    attribute: m_LocalEulerAngles.y
    path: Cylinder.002
    classID: 4
    script: {fileID: 0}
  - curve:
      serializedVersion: 2
      m_Curve: []
      m_PreInfinity: 2
      m_PostInfinity: 2
      m_RotationOrder: 4
    attribute: m_LocalEulerAngles.x
    path: Cylinder.002
    classID: 4
    script: {fileID: 0}
  - curve:
      serializedVersion: 2
      m_Curve: []
      m_PreInfinity: 2
      m_PostInfinity: 2
      m_RotationOrder: 4
    attribute: m_LocalEulerAngles.x
    path: Cylinder.003
    classID: 4
    script: {fileID: 0}
  - curve:
      serializedVersion: 2
      m_Curve: []
      m_PreInfinity: 2
      m_PostInfinity: 2
      m_RotationOrder: 4
    attribute: m_LocalEulerAngles.y
    path: Cylinder.003
    classID: 4
    script: {fileID: 0}
  - curve:
      serializedVersion: 2
      m_Curve: []
      m_PreInfinity: 2
      m_PostInfinity: 2
      m_RotationOrder: 4
    attribute: m_LocalEulerAngles.z
    path: Cylinder.003
    classID: 4
    script: {fileID: 0}
  m_HasGenericRootTransform: 1
  m_HasMotionFloatCurves: 0
  m_GenerateMotionCurves: 0
  m_Events: []
